{
  "success": true,
  "code": 10000,
  "message": "获取摸鱼列表成功.",
  "data": {
    "list": [
      {
        "id": "1518761601509888001",
        "userId": "1314408005793603584",
        "nickname": "ccTyL",
        "avatar": "https://images.sunofbeaches.com/content/2021_10_09/896340281694093312.png",
        "company": null,
        "position": null,
        "content": "<div>点赞接口： `PUT&nbsp; /ct/moyu/thumb-up/${momentId}` 似乎是有问题的。</div><div>点赞之后页面不会显示，刷新大概5-6次还是显示未点赞，</div><div>不是缓存的问题，因为我直接查看接口的响应，发现就是没有点赞。</div><div>这时候你再去点赞就会提示已经点赞不要重复点赞。这个就有点诡异了<img class=\"emoji\" src=\"https://cdn.sunofbeaches.com/emoji/7.png\" width=\"20\" height=\"20\"></div>",
        "linkCover": "",
        "linkTitle": "",
        "linkUrl": "",
        "commentCount": 2,
        "thumbUpCount": 0,
        "images": [
          "https://images.sunofbeaches.com/content/2022_04_26/968441110542155776.png"
        ],
        "topicName": null,
        "topicId": "",
        "createTime": "2022-04-26 09:19",
        "hasThumbUp": false,
        "thumbUpList": [
          "1314408005793603584"
        ],
        "vip": false
      },
      {
        "id": "1518563548219838465",
        "userId": "1504452765877800961",
        "nickname": "搬砖小后",
        "avatar": "https://images.sunofbeaches.com/content/2022_04_14/964124335407104000.png",
        "company": null,
        "position": null,
        "content": "头大的一天<img class=\"emoji\" src=\"https://cdn.sunofbeaches.com/emoji/9.png\" width=\"20\" height=\"20\">，还没学过View Pager和MVP，看领券联盟看懵啦，明天把这两个补一下！<img class=\"emoji\" src=\"https://cdn.sunofbeaches.com/emoji/7.png\" width=\"20\" height=\"20\">",
        "linkCover": "",
        "linkTitle": "",
        "linkUrl": "",
        "commentCount": 3,
        "thumbUpCount": 0,
        "images": [],
        "topicName": null,
        "topicId": "",
        "createTime": "2022-04-25 20:12",
        "hasThumbUp": false,
        "thumbUpList": [
          "1504452765877800961",
          "1153952789488054272",
          "1139423796017500160"
        ],
        "vip": false
      },
      {
        "id": "1518509616474886146",
        "userId": "1274165387499433984",
        "nickname": "南城阿宇",
        "avatar": "https://imgs.sunofbeaches.com/group1/M00/00/2A/rBsADV80qt6ASPajAABRTM8wiqs313.png",
        "company": "ncayu",
        "position": "云计算开发",
        "content": "#A股跌破3000\n原来在2008年的时候，上证指数是6124。现在十几年过去了，又回到了2900。\n\n图片来源于网络，如有雷同，纯属巧合",
        "linkCover": null,
        "linkTitle": null,
        "linkUrl": null,
        "commentCount": 1,
        "thumbUpCount": 6,
        "images": [
          "https://images.sunofbeaches.com/content/2022_04_25/968189139876839424.jpeg",
          "https://images.sunofbeaches.com/content/2022_04_25/968189140564705280.png",
          "https://images.sunofbeaches.com/content/2022_04_25/968189141248376832.png",
          "https://images.sunofbeaches.com/content/2022_04_25/968189141902688256.jpeg",
          "https://images.sunofbeaches.com/content/2022_04_25/968189142510862336.jpeg"
        ],
        "topicName": "一语惊人",
        "topicId": "1384518439661473794",
        "createTime": "2022-04-25 16:38",
        "hasThumbUp": false,
        "thumbUpList": [
          "1153952789488054272",
          "1274165387499433984",
          "1382711465131241472",
          "1139423796017500160",
          "1438863588197507073",
          "1314408005793603584"
        ],
        "vip": true
      },
      {
        "id": "1518492414757572609",
        "userId": "1204736502274318336",
        "nickname": "A lonely cat",
        "avatar": "https://imgs.sunofbeaches.com/group1/M00/00/0C/rBsADV3w3l6ATs8KAAA8tUB7EHo702.png",
        "company": "求内推",
        "position": "Android开发工程师",
        "content": "华为云的问答机器人&nbsp; 我一共需要两个接口&nbsp; &nbsp;我看文档愣是看了接近俩小时&nbsp; &nbsp;不得不说&nbsp; 这文档写得太复杂了",
        "linkCover": "",
        "linkTitle": "",
        "linkUrl": "",
        "commentCount": 2,
        "thumbUpCount": 3,
        "images": [],
        "topicName": "打工人日常",
        "topicId": "1388132359030759425",
        "createTime": "2022-04-25 15:29",
        "hasThumbUp": false,
        "thumbUpList": [
          "1268774545783795712",
          "1274165387499433984",
          "1314408005793603584"
        ],
        "vip": true
      },
      {
        "id": "1518482794639003649",
        "userId": "1382711465131241472",
        "nickname": "阿肥",
        "avatar": "https://images.sunofbeaches.com/content/2022_01_04/927947264050069504.png",
        "company": "广州摸鱼无责任有限公司",
        "position": "首席划水工程师",
        "content": "一句话 让一个男人给我打16个sob币\n\n感谢宿夜大佬",
        "linkCover": null,
        "linkTitle": null,
        "linkUrl": "",
        "commentCount": 3,
        "thumbUpCount": 5,
        "images": [
          "https://images.sunofbeaches.com/content/2022_04_25/968162155952078848.jpg"
        ],
        "topicName": "划水摸鱼",
        "topicId": "1384518752720130050",
        "createTime": "2022-04-25 14:51",
        "hasThumbUp": false,
        "thumbUpList": [
          "1284274686481473536",
          "1153952789488054272",
          "1139423796017500160",
          "1442674183392829441",
          "1274165387499433984"
        ],
        "vip": false
      },
      {
        "id": "1518475848749944833",
        "userId": "1153952789488054272",
        "nickname": "拉大锯",
        "avatar": "https://images.sunofbeaches.com/content/2022_01_04/927902852251123712.png",
        "company": "阳光沙滩",
        "position": "首席打杂工程师",
        "content": "我昨天更新了课程，目前更新到129集，详情请访问链接地址",
        "linkCover": "",
        "linkTitle": "阳光沙滩-JavaWeb微服务项目实战《摸鱼君》",
        "linkUrl": "https://www.sunofbeach.net/c/1478001339102429186",
        "commentCount": 2,
        "thumbUpCount": 0,
        "images": [
          "https://images.sunofbeaches.com/content/2022_04_25/968155275691294720.png"
        ],
        "topicName": null,
        "topicId": "",
        "createTime": "2022-04-25 14:23",
        "hasThumbUp": false,
        "thumbUpList": [
          "1436177379159547906",
          "1382711465131241472",
          "1284274686481473536",
          "1139423796017500160",
          "1442674183392829441",
          "1274165387499433984",
          "1347474750661849088"
        ],
        "vip": false
      },
      {
        "id": "1518475239225298945",
        "userId": "1314408005793603584",
        "nickname": "ccTyL",
        "avatar": "https://images.sunofbeaches.com/content/2021_10_09/896340281694093312.png",
        "company": null,
        "position": null,
        "content": "<div>终于做出来一题比较简单的，真是不容易，成就感满满<br></div><div>https://leetcode-cn.com/submissions/detail/305153317/</div>",
        "linkCover": "",
        "linkTitle": "",
        "linkUrl": "",
        "commentCount": 0,
        "thumbUpCount": 8,
        "images": [
          "https://images.sunofbeaches.com/content/2022_04_25/968154761058582528.png"
        ],
        "topicName": null,
        "topicId": "",
        "createTime": "2022-04-25 14:21",
        "hasThumbUp": false,
        "thumbUpList": [
          "1153952789488054272",
          "1382711465131241472",
          "1284274686481473536",
          "1494238633526419458",
          "1256120724666454016",
          "1442674183392829441",
          "1274165387499433984",
          "1347474750661849088"
        ],
        "vip": false
      },
      {
        "id": "1518430656554602497",
        "userId": "1442674183392829441",
        "nickname": "呆瓜小董",
        "avatar": "https://cdn.sunofbeaches.com/images/default_avatar.png",
        "company": null,
        "position": null,
        "content": "如果一天没事做，日志怎么写",
        "linkCover": "",
        "linkTitle": "",
        "linkUrl": "",
        "commentCount": 2,
        "thumbUpCount": 4,
        "images": [],
        "topicName": null,
        "topicId": "",
        "createTime": "2022-04-25 11:24",
        "hasThumbUp": false,
        "thumbUpList": [
          "1153952789488054272",
          "1274165387499433984",
          "1139423796017500160",
          "1284274686481473536"
        ],
        "vip": false
      },
      {
        "id": "1518424961155338242",
        "userId": "1268774545783795712",
        "nickname": "ALEX",
        "avatar": "https://images.sunofbeaches.com/content/2022_03_29/958358748433219584.png",
        "company": null,
        "position": null,
        "content": "突然发现，用webview加载问题答案content的时候，有图片的情况下居然乱码了。。这是神马情况⊙∀⊙！顺便吐槽一下，那个content里的图片字节太长了",
        "linkCover": null,
        "linkTitle": null,
        "linkUrl": "",
        "commentCount": 3,
        "thumbUpCount": 3,
        "images": [
          "https://images.sunofbeaches.com/content/2022_04_25/968103759081111552.jpg"
        ],
        "topicName": "划水摸鱼",
        "topicId": "1384518752720130050",
        "createTime": "2022-04-25 11:01",
        "hasThumbUp": false,
        "thumbUpList": [
          "1274165387499433984",
          "1139423796017500160",
          "1284274686481473536"
        ],
        "vip": false
      },
      {
        "id": "1518406872560832514",
        "userId": "1256120724666454016",
        "nickname": "宿夜星辰叹",
        "avatar": "https://imgs.sunofbeaches.com/group1/M00/00/24/rBsADV8EOPeAWEoCAAA-P-JPI7o280.png",
        "company": null,
        "position": null,
        "content": "各位滩友，好久没听到你们叫我靓仔了。所以，能叫我一声靓仔吗<img class=\"emoji\" src=\"https://cdn.sunofbeaches.com/emoji/102.png\" width=\"20\" height=\"20\">",
        "linkCover": "",
        "linkTitle": "",
        "linkUrl": "",
        "commentCount": 10,
        "thumbUpCount": 0,
        "images": [],
        "topicName": "划水摸鱼",
        "topicId": "1384518752720130050",
        "createTime": "2022-04-25 09:49",
        "hasThumbUp": false,
        "thumbUpList": [
          "1153952789488054272",
          "1139423796017500160",
          "1274165387499433984",
          "1202767676435456000",
          "1284274686481473536"
        ],
        "vip": true
      },
      {
        "id": "1518387748837265410",
        "userId": "1139423796017500160",
        "nickname": "工头断点",
        "avatar": "https://imgs.sunofbeaches.com/group1/M00/00/04/rBsADV2YuTKABc4DAABfJHgYqP8031.png",
        "company": "阳光沙滩",
        "position": "Goolge高级CV工程师",
        "content": "开始放假倒计时拉，5天！",
        "linkCover": null,
        "linkTitle": null,
        "linkUrl": null,
        "commentCount": 1,
        "thumbUpCount": 9,
        "images": [
          "https://images.sunofbeaches.com/content/2022_04_25/968067274483171328.jpeg"
        ],
        "topicName": "打工人日常",
        "topicId": "1388132359030759425",
        "createTime": "2022-04-25 08:33",
        "hasThumbUp": false,
        "thumbUpList": [
          "1442674183392829441",
          "1139423796017500160",
          "1438863588197507073",
          "1274617957070172160",
          "1153952789488054272",
          "1382711465131241472",
          "1284274686481473536",
          "1274165387499433984",
          "1497193244834926593"
        ],
        "vip": true
      },
      {
        "id": "1518260072696778754",
        "userId": "1204736502274318336",
        "nickname": "A lonely cat",
        "avatar": "https://imgs.sunofbeaches.com/group1/M00/00/0C/rBsADV3w3l6ATs8KAAA8tUB7EHo702.png",
        "company": "求内推",
        "position": "Android开发工程师",
        "content": "学院的视频课程播放功能对接完成，下一个版本更新，敬请期待吧！<div><br>如果你对 阳光沙滩 APP 的开发感兴趣的话，你可以 clone 我的项目地址：https://github.com/anjiemo/SunnyBeach&nbsp; &nbsp;<div><br><div>如果你想体验最新发布的版本，可以复制下方的链接到浏览器打开（密码：<span style=\"background-color: rgb(255, 255, 255); color: rgb(36, 41, 47); font-family: -apple-system, &quot;system-ui&quot;, &quot;Segoe UI&quot;, Helvetica, Arial, sans-serif, &quot;Apple Color Emoji&quot;, &quot;Segoe UI Emoji&quot;; font-size: 16px;\">5qlt</span>）：https://wwa.lanzoui.com/b02zz8dva</div></div></div>",
        "linkCover": "",
        "linkTitle": "",
        "linkUrl": "",
        "commentCount": 7,
        "thumbUpCount": 0,
        "images": [
          "https://images.sunofbeaches.com/content/2022_04_24/967939372848513024.png",
          "https://images.sunofbeaches.com/content/2022_04_24/967939385590808576.png",
          "https://images.sunofbeaches.com/content/2022_04_24/967939398542819328.png"
        ],
        "topicName": "逼格满满",
        "topicId": "1388132816037928962",
        "createTime": "2022-04-25 00:06",
        "hasThumbUp": false,
        "thumbUpList": [
          "1153952789488054272",
          "1274617957070172160",
          "1256120724666454016",
          "1382711465131241472",
          "1314408005793603584",
          "1274165387499433984",
          "1202767676435456000"
        ],
        "vip": true
      },
      {
        "id": "1518168640489263105",
        "userId": "1204736502274318336",
        "nickname": "A lonely cat",
        "avatar": "https://imgs.sunofbeaches.com/group1/M00/00/0C/rBsADV3w3l6ATs8KAAA8tUB7EHo702.png",
        "company": "求内推",
        "position": "Android开发工程师",
        "content": "今日上班时长完成进度（1/1）",
        "linkCover": null,
        "linkTitle": null,
        "linkUrl": null,
        "commentCount": 1,
        "thumbUpCount": 3,
        "images": [],
        "topicName": "打工人日常",
        "topicId": "1388132359030759425",
        "createTime": "2022-04-24 18:03",
        "hasThumbUp": false,
        "thumbUpList": [
          "1202767676435456000",
          "1153952789488054272",
          "1274617957070172160"
        ],
        "vip": true
      },
      {
        "id": "1518166202512314370",
        "userId": "1314408005793603584",
        "nickname": "ccTyL",
        "avatar": "https://images.sunofbeaches.com/content/2021_10_09/896340281694093312.png",
        "company": null,
        "position": null,
        "content": "今天刷了一天leetcode，顿时发现数学水平太差太差",
        "linkCover": "",
        "linkTitle": "",
        "linkUrl": "",
        "commentCount": 2,
        "thumbUpCount": 2,
        "images": [],
        "topicName": null,
        "topicId": "",
        "createTime": "2022-04-24 17:53",
        "hasThumbUp": false,
        "thumbUpList": [
          "1139423796017500160",
          "1284274686481473536"
        ],
        "vip": false
      },
      {
        "id": "1518162259883331586",
        "userId": "1256120724666454016",
        "nickname": "宿夜星辰叹",
        "avatar": "https://imgs.sunofbeaches.com/group1/M00/00/24/rBsADV8EOPeAWEoCAAA-P-JPI7o280.png",
        "company": null,
        "position": null,
        "content": "发明调休的人和发明公摊的都是“人才”",
        "linkCover": "",
        "linkTitle": "",
        "linkUrl": "",
        "commentCount": 1,
        "thumbUpCount": 2,
        "images": [],
        "topicName": null,
        "topicId": "",
        "createTime": "2022-04-24 17:37",
        "hasThumbUp": false,
        "thumbUpList": [
          "1139423796017500160",
          "1284274686481473536"
        ],
        "vip": true
      },
      {
        "id": "1518153927122489345",
        "userId": "1139423796017500160",
        "nickname": "工头断点",
        "avatar": "https://imgs.sunofbeaches.com/group1/M00/00/04/rBsADV2YuTKABc4DAABfJHgYqP8031.png",
        "company": "阳光沙滩",
        "position": "Goolge高级CV工程师",
        "content": "灵魂拷问一下！",
        "linkCover": null,
        "linkTitle": null,
        "linkUrl": null,
        "commentCount": 1,
        "thumbUpCount": 4,
        "images": [
          "https://images.sunofbeaches.com/content/2022_04_24/967833453116522496.jpeg"
        ],
        "topicName": "打工人日常",
        "topicId": "1388132359030759425",
        "createTime": "2022-04-24 17:04",
        "hasThumbUp": false,
        "thumbUpList": [
          "1139423796017500160",
          "1438863588197507073",
          "1284274686481473536",
          "1497193244834926593"
        ],
        "vip": true
      },
      {
        "id": "1518129862550753281",
        "userId": "1382711465131241472",
        "nickname": "阿肥",
        "avatar": "https://images.sunofbeaches.com/content/2022_01_04/927947264050069504.png",
        "company": "广州摸鱼无责任有限公司",
        "position": "首席划水工程师",
        "content": "“你们不要再卷了”",
        "linkCover": null,
        "linkTitle": null,
        "linkUrl": "",
        "commentCount": 1,
        "thumbUpCount": 2,
        "images": [
          "https://images.sunofbeaches.com/content/2022_04_24/967809366369501184.gif"
        ],
        "topicName": null,
        "topicId": "",
        "createTime": "2022-04-24 15:28",
        "hasThumbUp": false,
        "thumbUpList": [
          "1139423796017500160",
          "1284274686481473536"
        ],
        "vip": false
      },
      {
        "id": "1518117603413856257",
        "userId": "1202767676435456000",
        "nickname": "技术上无法实现",
        "avatar": "https://images.sunofbeaches.com/content/2022_02_28/947997915148713984.png",
        "company": "摸鱼划水集团",
        "position": "顶级划水兼CV开发工程师",
        "content": "<img class=\"emoji\" src=\"https://cdn.sunofbeaches.com/emoji/62.png\" width=\"20\" height=\"20\">为何今天动态这么少，该不会只有我要上班吧。",
        "linkCover": "",
        "linkTitle": "",
        "linkUrl": "",
        "commentCount": 5,
        "thumbUpCount": 0,
        "images": [
          "https://images.sunofbeaches.com/content/2022_04_24/967796997715132416.jpg"
        ],
        "topicName": "一语惊人",
        "topicId": "1384518439661473794",
        "createTime": "2022-04-24 14:40",
        "hasThumbUp": false,
        "thumbUpList": [
          "1202767676435456000",
          "1139423796017500160",
          "1153952789488054272"
        ],
        "vip": false
      },
      {
        "id": "1518027391794941953",
        "userId": "1139423796017500160",
        "nickname": "工头断点",
        "avatar": "https://imgs.sunofbeaches.com/group1/M00/00/04/rBsADV2YuTKABc4DAABfJHgYqP8031.png",
        "company": "阳光沙滩",
        "position": "Goolge高级CV工程师",
        "content": "最后一把不敢看不敢看，我这小心脏受不了，醒来看结果，果然还是赢了，哈哈哈哈哈哈哈，恭喜rng！",
        "linkCover": null,
        "linkTitle": null,
        "linkUrl": null,
        "commentCount": 4,
        "thumbUpCount": 5,
        "images": [
          "https://images.sunofbeaches.com/content/2022_04_24/967706915918315520.jpeg",
          "https://images.sunofbeaches.com/content/2022_04_24/967706916996251648.jpeg",
          "https://images.sunofbeaches.com/content/2022_04_24/967706917780586496.jpeg"
        ],
        "topicName": "今日头条",
        "topicId": "1388132524890316802",
        "createTime": "2022-04-24 08:41",
        "hasThumbUp": false,
        "thumbUpList": [
          "1497193244834926593",
          "1284274686481473536",
          "1139423796017500160",
          "1202767676435456000",
          "1438863588197507073"
        ],
        "vip": true
      },
      {
        "id": "1518023550416457730",
        "userId": "1204736502274318336",
        "nickname": "A lonely cat",
        "avatar": "https://imgs.sunofbeaches.com/group1/M00/00/0C/rBsADV3w3l6ATs8KAAA8tUB7EHo702.png",
        "company": "求内推",
        "position": "Android开发工程师",
        "content": "今天大家不要忘记上班哦[大笑][大笑]",
        "linkCover": null,
        "linkTitle": null,
        "linkUrl": null,
        "commentCount": 1,
        "thumbUpCount": 0,
        "images": [],
        "topicName": "打工人日常",
        "topicId": "1388132359030759425",
        "createTime": "2022-04-24 08:26",
        "hasThumbUp": false,
        "thumbUpList": [
          "1284274686481473536",
          "1202767676435456000"
        ],
        "vip": true
      },
      {
        "id": "1517880539359481858",
        "userId": "1139423796017500160",
        "nickname": "工头断点",
        "avatar": "https://imgs.sunofbeaches.com/group1/M00/00/04/rBsADV2YuTKABc4DAABfJHgYqP8031.png",
        "company": "阳光沙滩",
        "position": "Goolge高级CV工程师",
        "content": "如果公司通知大家明天要上班，都是骗人的，注意注意！",
        "linkCover": null,
        "linkTitle": null,
        "linkUrl": null,
        "commentCount": 2,
        "thumbUpCount": 6,
        "images": [],
        "topicName": "打工人日常",
        "topicId": "1388132359030759425",
        "createTime": "2022-04-23 22:58",
        "hasThumbUp": false,
        "thumbUpList": [
          "1202767676435456000",
          "1139423796017500160",
          "1497193244834926593",
          "1284274686481473536",
          "1153952789488054272",
          "1438863588197507073"
        ],
        "vip": true
      },
      {
        "id": "1517793884715880449",
        "userId": "1139423796017500160",
        "nickname": "工头断点",
        "avatar": "https://imgs.sunofbeaches.com/group1/M00/00/04/rBsADV2YuTKABc4DAABfJHgYqP8031.png",
        "company": "阳光沙滩",
        "position": "Goolge高级CV工程师",
        "content": "起飞了起飞了！",
        "linkCover": null,
        "linkTitle": null,
        "linkUrl": null,
        "commentCount": 5,
        "thumbUpCount": 6,
        "images": [
          "https://images.sunofbeaches.com/content/2022_04_23/967473410676359168.jpeg"
        ],
        "topicName": "养生之道",
        "topicId": "1384190025620533249",
        "createTime": "2022-04-23 17:13",
        "hasThumbUp": false,
        "thumbUpList": [
          "1153952789488054272",
          "1139423796017500160",
          "1438863588197507073",
          "1202767676435456000",
          "1497193244834926593",
          "1284274686481473536"
        ],
        "vip": true
      },
      {
        "id": "1517788867623653378",
        "userId": "1153952789488054272",
        "nickname": "拉大锯",
        "avatar": "https://images.sunofbeaches.com/content/2022_01_04/927902852251123712.png",
        "company": "阳光沙滩",
        "position": "首席打杂工程师",
        "content": "明天更新一点视频，然后更新网站，逐步实现一下积分的玩法。bug，随缘吧，哈哈。",
        "linkCover": "",
        "linkTitle": "",
        "linkUrl": "",
        "commentCount": 4,
        "thumbUpCount": 0,
        "images": [],
        "topicName": "小目标",
        "topicId": "1384518863412006914",
        "createTime": "2022-04-23 16:54",
        "hasThumbUp": false,
        "thumbUpList": [
          "1139423796017500160",
          "1347474750661849088"
        ],
        "vip": false
      },
      {
        "id": "1517745218235928578",
        "userId": "1226864425491763200",
        "nickname": "ᶜʰⁱⁿᵃ ⁿᵉʷ ᵇ",
        "avatar": "https://imgs.sunofbeaches.com/group1/M00/00/2F/rBsADV9QSfSANio8AABgpPziQoY695.png",
        "company": "摸鱼公司",
        "position": "鱼头",
        "content": "卡彤，卡tuituitui",
        "linkCover": null,
        "linkTitle": null,
        "linkUrl": null,
        "commentCount": 1,
        "thumbUpCount": 0,
        "images": [
          "https://images.sunofbeaches.com/content/2022_04_23/967424487584694272.gif",
          "https://images.sunofbeaches.com/content/2022_04_23/967424743948943360.png"
        ],
        "topicName": "养生之道",
        "topicId": "1384190025620533249",
        "createTime": "2022-04-23 14:00",
        "hasThumbUp": false,
        "thumbUpList": [],
        "vip": false
      },
      {
        "id": "1517734642650714113",
        "userId": "1139423796017500160",
        "nickname": "工头断点",
        "avatar": "https://imgs.sunofbeaches.com/group1/M00/00/04/rBsADV2YuTKABc4DAABfJHgYqP8031.png",
        "company": "阳光沙滩",
        "position": "Goolge高级CV工程师",
        "content": "我想知道大家起床的第一件事是啥？",
        "linkCover": null,
        "linkTitle": null,
        "linkUrl": null,
        "commentCount": 4,
        "thumbUpCount": 3,
        "images": [
          "https://images.sunofbeaches.com/content/2022_04_23/967414168548278272.jpeg"
        ],
        "topicName": "一语惊人",
        "topicId": "1384518439661473794",
        "createTime": "2022-04-23 13:18",
        "hasThumbUp": false,
        "thumbUpList": [
          "1139423796017500160",
          "1438863588197507073",
          "1497193244834926593"
        ],
        "vip": true
      },
      {
        "id": "1517697955233009665",
        "userId": "1347474750661849088",
        "nickname": "Romantic",
        "avatar": "https://imgs.sunofbeaches.com/group1/M00/00/40/rBsADWAYITCAJpK1AABZPRa3kCo649.png",
        "company": "正在构思中",
        "position": "Bug-ProGrammer",
        "content": "昨天服务器mysql镜像崩溃了，还好我数据备份了，要不然人就完蛋了。",
        "linkCover": null,
        "linkTitle": null,
        "linkUrl": null,
        "commentCount": 2,
        "thumbUpCount": 2,
        "images": [],
        "topicName": "一语惊人",
        "topicId": "1384518439661473794",
        "createTime": "2022-04-23 10:52",
        "hasThumbUp": false,
        "thumbUpList": [
          "1139423796017500160",
          "1284274686481473536"
        ],
        "vip": true
      },
      {
        "id": "1517686407462653953",
        "userId": "1284274686481473536",
        "nickname": "YanLQ",
        "avatar": "https://images.sunofbeaches.com/content/2021_07_15/865370265700270080.png",
        "company": "",
        "position": "Android小萌新",
        "content": "\uD83D\uDE05\uD83D\uDE05\uD83D\uDE05有多少兄弟，拿这个做毕业设计呢，哈哈哈",
        "linkCover": null,
        "linkTitle": null,
        "linkUrl": null,
        "commentCount": 5,
        "thumbUpCount": 4,
        "images": [],
        "topicName": "掐指一算",
        "topicId": "1388133893743370241",
        "createTime": "2022-04-23 10:06",
        "hasThumbUp": false,
        "thumbUpList": [
          "1153952789488054272",
          "1139423796017500160",
          "1347474750661849088",
          "1284274686481473536"
        ],
        "vip": true
      },
      {
        "id": "1517536567139241985",
        "userId": "1517535667062575106",
        "nickname": "2222",
        "avatar": "https://cdn.sunofbeaches.com/images/default_avatar.png",
        "company": null,
        "position": null,
        "content": "<img class=\"emoji\" src=\"https://cdn.sunofbeaches.com/emoji/11.png\" width=\"20\" height=\"20\"><img class=\"emoji\" src=\"https://cdn.sunofbeaches.com/emoji/17.png\" width=\"20\" height=\"20\"><img class=\"emoji\" src=\"https://cdn.sunofbeaches.com/emoji/18.png\" width=\"20\" height=\"20\">",
        "linkCover": "",
        "linkTitle": "",
        "linkUrl": "",
        "commentCount": 1,
        "thumbUpCount": 3,
        "images": [],
        "topicName": null,
        "topicId": "",
        "createTime": "2022-04-23 00:11",
        "hasThumbUp": false,
        "thumbUpList": [
          "1284274686481473536",
          "1153952789488054272",
          "1139423796017500160"
        ],
        "vip": false
      },
      {
        "id": "1517536467906203650",
        "userId": "1517535667062575106",
        "nickname": "2222",
        "avatar": "https://cdn.sunofbeaches.com/images/default_avatar.png",
        "company": null,
        "position": null,
        "content": "<img class=\"emoji\" src=\"https://cdn.sunofbeaches.com/emoji/3.png\" width=\"20\" height=\"20\"><img class=\"emoji\" src=\"https://cdn.sunofbeaches.com/emoji/8.png\" width=\"20\" height=\"20\"><img class=\"emoji\" src=\"https://cdn.sunofbeaches.com/emoji/14.png\" width=\"20\" height=\"20\"><img class=\"emoji\" src=\"https://cdn.sunofbeaches.com/emoji/16.png\" width=\"20\" height=\"20\"><img class=\"emoji\" src=\"https://cdn.sunofbeaches.com/emoji/16.png\" width=\"20\" height=\"20\"><img class=\"emoji\" src=\"https://cdn.sunofbeaches.com/emoji/11.png\" width=\"20\" height=\"20\"><img class=\"emoji\" src=\"https://cdn.sunofbeaches.com/emoji/11.png\" width=\"20\" height=\"20\"><img class=\"emoji\" src=\"https://cdn.sunofbeaches.com/emoji/17.png\" width=\"20\" height=\"20\"><img class=\"emoji\" src=\"https://cdn.sunofbeaches.com/emoji/18.png\" width=\"20\" height=\"20\"><img class=\"emoji\" src=\"https://cdn.sunofbeaches.com/emoji/9.png\" width=\"20\" height=\"20\">",
        "linkCover": "",
        "linkTitle": "",
        "linkUrl": "",
        "commentCount": 0,
        "thumbUpCount": 1,
        "images": [],
        "topicName": null,
        "topicId": "",
        "createTime": "2022-04-23 00:11",
        "hasThumbUp": false,
        "thumbUpList": [
          "1284274686481473536"
        ],
        "vip": false
      },
      {
        "id": "1517498404702261249",
        "userId": "1204736502274318336",
        "nickname": "A lonely cat",
        "avatar": "https://imgs.sunofbeaches.com/group1/M00/00/0C/rBsADV3w3l6ATs8KAAA8tUB7EHo702.png",
        "company": "求内推",
        "position": "Android开发工程师",
        "content": "别人分享的链接为什么不能收藏呢？&nbsp; 别人的就是我的，我的还是我的！",
        "linkCover": "",
        "linkTitle": "",
        "linkUrl": "",
        "commentCount": 0,
        "thumbUpCount": 2,
        "images": [],
        "topicName": "一语惊人",
        "topicId": "1384518439661473794",
        "createTime": "2022-04-22 21:39",
        "hasThumbUp": false,
        "thumbUpList": [
          "1153952789488054272",
          "1347474750661849088"
        ],
        "vip": true
      }
    ],
    "total": 3204,
    "pageSize": 30,
    "currentPage": 1,
    "hasNext": true,
    "hasPre": false,
    "totalPage": 107
  }
}
