{
  "success": true,
  "code": 10000,
  "message": "获取摸鱼列表成功.",
  "data": {
    "list": [
      {
        "id": "1517043949951258625",
        "userId": "1314408005793603584",
        "nickname": "ccTyL",
        "avatar": "https://images.sunofbeaches.com/content/2021_10_09/896340281694093312.png",
        "company": null,
        "position": null,
        "content": "正在尝试做动态的发送功能，但是这个链接和话题的插入要怎么整合适，直接套在content里面吗<img class=\"emoji\" src=\"https://cdn.sunofbeaches.com/emoji/46.png\" width=\"20\" height=\"20\">",
        "linkCover": "",
        "linkTitle": "阳光沙滩API文档",
        "linkUrl": "https://www.sunofbeach.net/a/1403262826952323074",
        "commentCount": 2,
        "thumbUpCount": 0,
        "images": [
          "https://images.sunofbeaches.com/content/2022_04_20/966396492690489344.png"
        ],
        "topicName": "代码之美",
        "topicId": "1384189862646657025",
        "createTime": "2022-04-21 15:33",
        "hasThumbUp": false,
        "thumbUpList": [],
        "vip": false
      },
      {
        "id": "1517042255695712258",
        "userId": "1275571944028139520",
        "nickname": "Hewie",
        "avatar": "https://images.sunofbeaches.com/content/2021_09_07/884893685836152832.png",
        "company": "",
        "position": "",
        "content": "问个问题<div><br></div>",
        "linkCover": "",
        "linkTitle": "",
        "linkUrl": "https://www.sunofbeach.net/qa/1517042032332247041",
        "commentCount": 2,
        "thumbUpCount": 0,
        "images": [],
        "topicName": null,
        "topicId": "",
        "createTime": "2022-04-21 15:27",
        "hasThumbUp": false,
        "thumbUpList": [],
        "vip": true
      },
      {
        "id": "1517011018054635521",
        "userId": "1496770531452522498",
        "nickname": "小King",
        "avatar": "https://cdn.sunofbeaches.com/images/default_avatar.png",
        "company": null,
        "position": null,
        "content": "写的文章找不到啦<img class=\"emoji\" src=\"https://cdn.sunofbeaches.com/emoji/4.png\" width=\"20\" height=\"20\">",
        "linkCover": "",
        "linkTitle": "",
        "linkUrl": "",
        "commentCount": 2,
        "thumbUpCount": 0,
        "images": [],
        "topicName": null,
        "topicId": "",
        "createTime": "2022-04-21 13:23",
        "hasThumbUp": false,
        "thumbUpList": [],
        "vip": false
      },
      {
        "id": "1516785082478628865",
        "userId": "1139423796017500160",
        "nickname": "工头断点",
        "avatar": "https://imgs.sunofbeaches.com/group1/M00/00/04/rBsADV2YuTKABc4DAABfJHgYqP8031.png",
        "company": "阳光沙滩",
        "position": "Goolge高级CV工程师",
        "content": "我数了好几次我的粉丝，99个啦~~~~，大佬没关注的求个关注~~~",
        "linkCover": "",
        "linkTitle": "",
        "linkUrl": "",
        "commentCount": 7,
        "thumbUpCount": 0,
        "images": [],
        "topicName": "小目标",
        "topicId": "1384518863412006914",
        "createTime": "2022-04-20 22:25",
        "hasThumbUp": false,
        "thumbUpList": [
          "1284274686481473536",
          "1382711465131241472",
          "1139423796017500160",
          "1153952789488054272",
          "1438863588197507073"
        ],
        "vip": true
      },
      {
        "id": "1516758975524114433",
        "userId": "1365268693742907392",
        "nickname": "CrTnil",
        "avatar": "https://images.sunofbeaches.com/content/2021_06_22/856894478944829440.png",
        "company": "打工人集团",
        "position": "CV工程师",
        "content": "可能只有我在加班<img class=\"emoji\" src=\"https://cdn.sunofbeaches.com/emoji/110.png\" width=\"20\" height=\"20\"><img class=\"emoji\" src=\"https://cdn.sunofbeaches.com/emoji/110.png\" width=\"20\" height=\"20\">",
        "linkCover": "",
        "linkTitle": "",
        "linkUrl": "",
        "commentCount": 3,
        "thumbUpCount": 0,
        "images": [],
        "topicName": null,
        "topicId": "",
        "createTime": "2022-04-20 20:41",
        "hasThumbUp": false,
        "thumbUpList": [
          "1139423796017500160",
          "1284274686481473536",
          "1153952789488054272"
        ],
        "vip": true
      },
      {
        "id": "1516746767922630657",
        "userId": "1302969105866940416",
        "nickname": "波鲁萨利诺.黄猿",
        "avatar": "https://images.sunofbeaches.com/content/2022_04_03/960254152636628992.png",
        "company": "广州无限摸鱼公司",
        "position": "android开发",
        "content": "下班后，时间是自己的，这是我独享的moment<img class=\"emoji\" src=\"https://cdn.sunofbeaches.com/emoji/7.png\" width=\"20\" height=\"20\"><img class=\"emoji\" src=\"https://cdn.sunofbeaches.com/emoji/7.png\" width=\"20\" height=\"20\"><img class=\"emoji\" src=\"https://cdn.sunofbeaches.com/emoji/7.png\" width=\"20\" height=\"20\">",
        "linkCover": "",
        "linkTitle": "",
        "linkUrl": "",
        "commentCount": 2,
        "thumbUpCount": 0,
        "images": [],
        "topicName": null,
        "topicId": "",
        "createTime": "2022-04-20 19:53",
        "hasThumbUp": false,
        "thumbUpList": [
          "1302969105866940416",
          "1139423796017500160",
          "1284274686481473536",
          "1153952789488054272"
        ],
        "vip": false
      },
      {
        "id": "1516714248359645186",
        "userId": "1314408005793603584",
        "nickname": "ccTyL",
        "avatar": "https://images.sunofbeaches.com/content/2021_10_09/896340281694093312.png",
        "company": null,
        "position": null,
        "content": "测出来一个bug，上传图片时，分类太多页面就会异常。估计是分页导航条的问题<img class=\"emoji\" src=\"https://cdn.sunofbeaches.com/emoji/7.png\" width=\"20\" height=\"20\">",
        "linkCover": "",
        "linkTitle": "",
        "linkUrl": "",
        "commentCount": 4,
        "thumbUpCount": 2,
        "images": [
          "https://images.sunofbeaches.com/content/2022_04_20/966393668829184000.png"
        ],
        "topicName": null,
        "topicId": "",
        "createTime": "2022-04-20 17:43",
        "hasThumbUp": false,
        "thumbUpList": [
          "1302969105866940416",
          "1139423796017500160"
        ],
        "vip": false
      },
      {
        "id": "1516708928505778178",
        "userId": "1382711465131241472",
        "nickname": "阿肥",
        "avatar": "https://images.sunofbeaches.com/content/2022_01_04/927947264050069504.png",
        "company": "广州摸鱼无责任有限公司",
        "position": "首席划水工程师",
        "content": "咱就说 真的一人一桶的下午茶 嗝~",
        "linkCover": null,
        "linkTitle": null,
        "linkUrl": "",
        "commentCount": 4,
        "thumbUpCount": 5,
        "images": [
          "https://images.sunofbeaches.com/content/2022_04_20/966388324098899968.jpg",
          "https://images.sunofbeaches.com/content/2022_04_20/966388338351144960.jpg"
        ],
        "topicName": "划水摸鱼",
        "topicId": "1384518752720130050",
        "createTime": "2022-04-20 17:22",
        "hasThumbUp": false,
        "thumbUpList": [
          "1153952789488054272",
          "1231137268748521472",
          "1139423796017500160",
          "1382711465131241472",
          "1284274686481473536"
        ],
        "vip": false
      },
      {
        "id": "1516694959468580865",
        "userId": "1325630670910906368",
        "nickname": "coderghl",
        "avatar": "https://images.sunofbeaches.com/content/2021_08_26/880487768558403584.png",
        "company": null,
        "position": null,
        "content": "233[哦呼][哦呼][哦呼]",
        "linkCover": null,
        "linkTitle": null,
        "linkUrl": null,
        "commentCount": 2,
        "thumbUpCount": 0,
        "images": [],
        "topicName": null,
        "topicId": null,
        "createTime": "2022-04-20 16:27",
        "hasThumbUp": false,
        "thumbUpList": [
          "1139423796017500160",
          "1153952789488054272"
        ],
        "vip": false
      },
      {
        "id": "1516692614361911297",
        "userId": "1314408005793603584",
        "nickname": "ccTyL",
        "avatar": "https://images.sunofbeaches.com/content/2021_10_09/896340281694093312.png",
        "company": null,
        "position": null,
        "content": "感觉差不多了",
        "linkCover": "",
        "linkTitle": "",
        "linkUrl": "",
        "commentCount": 2,
        "thumbUpCount": 3,
        "images": [
          "https://images.sunofbeaches.com/content/2022_04_20/966372130990063616.png"
        ],
        "topicName": null,
        "topicId": "",
        "createTime": "2022-04-20 16:17",
        "hasThumbUp": false,
        "thumbUpList": [
          "1231137268748521472",
          "1153952789488054272",
          "1284274686481473536"
        ],
        "vip": false
      },
      {
        "id": "1516661711032029186",
        "userId": "1153952789488054272",
        "nickname": "拉大锯",
        "avatar": "https://images.sunofbeaches.com/content/2022_01_04/927902852251123712.png",
        "company": "阳光沙滩",
        "position": "首席打杂工程师",
        "content": "阳光沙滩以后是不是可以出吉祥物：沙雕",
        "linkCover": "",
        "linkTitle": "",
        "linkUrl": "",
        "commentCount": 5,
        "thumbUpCount": 6,
        "images": [],
        "topicName": "一语惊人",
        "topicId": "1384518439661473794",
        "createTime": "2022-04-20 14:15",
        "hasThumbUp": false,
        "thumbUpList": [
          "1231137268748521472",
          "1202767676435456000",
          "1318000693470158848",
          "1382711465131241472",
          "1139423796017500160",
          "1256120724666454016"
        ],
        "vip": false
      },
      {
        "id": "1516605274826215425",
        "userId": "1139423796017500160",
        "nickname": "工头断点",
        "avatar": "https://imgs.sunofbeaches.com/group1/M00/00/04/rBsADV2YuTKABc4DAABfJHgYqP8031.png",
        "company": "阳光沙滩",
        "position": "Goolge高级CV工程师",
        "content": "今天是热血星期三，一起来写比u居~",
        "linkCover": null,
        "linkTitle": null,
        "linkUrl": null,
        "commentCount": 4,
        "thumbUpCount": 2,
        "images": [],
        "topicName": "打工人日常",
        "topicId": "1388132359030759425",
        "createTime": "2022-04-20 10:30",
        "hasThumbUp": false,
        "thumbUpList": [
          "1153952789488054272",
          "1438863588197507073"
        ],
        "vip": true
      },
      {
        "id": "1516413147706036225",
        "userId": "1153952789488054272",
        "nickname": "拉大锯",
        "avatar": "https://images.sunofbeaches.com/content/2022_01_04/927902852251123712.png",
        "company": "阳光沙滩",
        "position": "首席打杂工程师",
        "content": "今晚不改网站了，先录点课程，几天没录了，心里不踏实<img class=\"emoji\" src=\"https://cdn.sunofbeaches.com/emoji/4.png\" width=\"20\" height=\"20\"><div>五一又要来了，休5天假期，回老家抓鱼。</div>",
        "linkCover": "",
        "linkTitle": "",
        "linkUrl": "",
        "commentCount": 2,
        "thumbUpCount": 0,
        "images": [],
        "topicName": "打工人日常",
        "topicId": "1388132359030759425",
        "createTime": "2022-04-19 21:47",
        "hasThumbUp": false,
        "thumbUpList": [
          "1139423796017500160"
        ],
        "vip": false
      },
      {
        "id": "1516412934815748098",
        "userId": "1153952789488054272",
        "nickname": "拉大锯",
        "avatar": "https://images.sunofbeaches.com/content/2022_01_04/927902852251123712.png",
        "company": "阳光沙滩",
        "position": "首席打杂工程师",
        "content": "下架了所有的腾讯云广告，太坑了，MD",
        "linkCover": "",
        "linkTitle": "",
        "linkUrl": "",
        "commentCount": 2,
        "thumbUpCount": 0,
        "images": [],
        "topicName": "人言否",
        "topicId": "1388132715345272834",
        "createTime": "2022-04-19 21:46",
        "hasThumbUp": false,
        "thumbUpList": [],
        "vip": false
      },
      {
        "id": "1516346155988946945",
        "userId": "1256120724666454016",
        "nickname": "宿夜星辰叹",
        "avatar": "https://imgs.sunofbeaches.com/group1/M00/00/24/rBsADV8EOPeAWEoCAAA-P-JPI7o280.png",
        "company": null,
        "position": null,
        "content": "今晚准备整几个炸鸡腿恰一恰<img class=\"emoji\" src=\"https://cdn.sunofbeaches.com/emoji/45.png\" width=\"20\" height=\"20\">",
        "linkCover": "",
        "linkTitle": "",
        "linkUrl": "",
        "commentCount": 3,
        "thumbUpCount": 3,
        "images": [],
        "topicName": null,
        "topicId": "",
        "createTime": "2022-04-19 17:21",
        "hasThumbUp": false,
        "thumbUpList": [
          "1382711465131241472",
          "1139423796017500160",
          "1153952789488054272"
        ],
        "vip": true
      },
      {
        "id": "1516337183252811778",
        "userId": "1202767676435456000",
        "nickname": "技术上无法实现",
        "avatar": "https://images.sunofbeaches.com/content/2022_02_28/947997915148713984.png",
        "company": "摸鱼划水集团",
        "position": "顶级划水兼CV开发工程师",
        "content": "<div>完蛋，<img class=\"emoji\" src=\"https://cdn.sunofbeaches.com/emoji/87.png\" width=\"20\" height=\"20\">感觉这两天一直腰酸背痛。</div><div>应该是最近枸杞喝少了。</div>",
        "linkCover": "",
        "linkTitle": "",
        "linkUrl": "",
        "commentCount": 4,
        "thumbUpCount": 0,
        "images": [
          "https://images.sunofbeaches.com/content/2022_03_11/951767329480376320.jpeg"
        ],
        "topicName": "养生之道",
        "topicId": "1384190025620533249",
        "createTime": "2022-04-19 16:45",
        "hasThumbUp": false,
        "thumbUpList": [
          "1202767676435456000",
          "1139423796017500160",
          "1436177379159547906"
        ],
        "vip": false
      },
      {
        "id": "1516308469177651201",
        "userId": "1314408005793603584",
        "nickname": "ccTyL",
        "avatar": "https://images.sunofbeaches.com/content/2021_10_09/896340281694093312.png",
        "company": null,
        "position": null,
        "content": "<div>我的评论是下午2点48分发的，断点针对这条回复是早上6点发的。</div><div>结论：一定是断点穿越时空回去给我评论了<img class=\"emoji\" src=\"https://cdn.sunofbeaches.com/emoji/7.png\" width=\"20\" height=\"20\"></div><div>我也是刚刚调试移动端的时候发现的。因为默认对时间进行了处理，发现时区差了8小时<br></div>",
        "linkCover": "",
        "linkTitle": "",
        "linkUrl": "",
        "commentCount": 2,
        "thumbUpCount": 0,
        "images": [
          "https://images.sunofbeaches.com/content/2022_04_19/965987732272709632.png",
          "https://images.sunofbeaches.com/content/2022_04_19/965987846487801856.png"
        ],
        "topicName": null,
        "topicId": "",
        "createTime": "2022-04-19 14:51",
        "hasThumbUp": false,
        "thumbUpList": [
          "1231137268748521472"
        ],
        "vip": false
      },
      {
        "id": "1516252064592695298",
        "userId": "1250988207093321728",
        "nickname": "阿酷",
        "avatar": "https://images.sunofbeaches.com/content/2022_01_04/927960232867397632.png",
        "company": "没有",
        "position": "学生",
        "content": "我有个疑惑，感觉大多数从事程序员这个行业的都是偏内向的啊，比较腼腆，而且情商不是很高（就是不会说漂亮话，没有贬低的意思哈），不知道你们周围是不是，我周围就是 哈哈哈哈&nbsp;<img class=\"emoji\" src=\"https://cdn.sunofbeaches.com/emoji/4.png\" width=\"20\" height=\"20\">",
        "linkCover": "",
        "linkTitle": "",
        "linkUrl": "",
        "commentCount": 4,
        "thumbUpCount": 0,
        "images": [],
        "topicName": null,
        "topicId": "",
        "createTime": "2022-04-19 11:07",
        "hasThumbUp": false,
        "thumbUpList": [
          "1139423796017500160"
        ],
        "vip": false
      },
      {
        "id": "1516250467993128961",
        "userId": "1153952789488054272",
        "nickname": "拉大锯",
        "avatar": "https://images.sunofbeaches.com/content/2022_01_04/927902852251123712.png",
        "company": "阳光沙滩",
        "position": "首席打杂工程师",
        "content": "我今天有点忙，晚点再回复，嘿嘿！",
        "linkCover": "",
        "linkTitle": "",
        "linkUrl": "",
        "commentCount": 1,
        "thumbUpCount": 1,
        "images": [],
        "topicName": "划水摸鱼",
        "topicId": "1384518752720130050",
        "createTime": "2022-04-19 11:00",
        "hasThumbUp": false,
        "thumbUpList": [
          "1436177379159547906"
        ],
        "vip": false
      },
      {
        "id": "1516229405750333441",
        "userId": "1314408005793603584",
        "nickname": "ccTyL",
        "avatar": "https://images.sunofbeaches.com/content/2021_10_09/896340281694093312.png",
        "company": null,
        "position": null,
        "content": "取消收藏的时候，接口：/ct/favorite/{favoriteId}，并没有指定收藏夹的id。但是我收藏夹是可以有多个的，那么取消收藏的时候，是所有收藏夹，都把这个文章给删除掉。还是说只删某一个夹中的记录，删哪一个呢",
        "linkCover": "",
        "linkTitle": "",
        "linkUrl": "",
        "commentCount": 2,
        "thumbUpCount": 0,
        "images": [],
        "topicName": null,
        "topicId": "",
        "createTime": "2022-04-19 09:37",
        "hasThumbUp": false,
        "thumbUpList": [],
        "vip": false
      },
      {
        "id": "1516224482635681794",
        "userId": "1231137268748521472",
        "nickname": "码划云",
        "avatar": "https://images.sunofbeaches.com/content/2022_03_23/956117482517561344.png",
        "company": "Android孤儿数码科技有限公司",
        "position": "Android划水工程师",
        "content": "趁着坐公交的时间，分享个很有意思的梦，挺好玩的，可能你们会觉得比较弱智噢，简直离谱她妈给离谱开门，离谱到家了。故事开始，我穿越回上小学的时候了，没错是穿越不是回去，因为我看到我小时候的自己了，具体样子没看清，反正我知道是我，矮矮胖胖人畜无害，而且我和那小东西长的一模一样，我还想着老妈不会分不清吧，然后老妈就出现了，而且一下认出来了我是穿越回来的，让我住下来，然后就是一些休闲日常的活动，和小朋友乱逛，最离谱的是还有一段一起抓宝可梦的剧情，不知道为什么有这段，我不追宝可梦的，啥超梦之类的，接着，老妈说让我和以前的我轮流上课，你一节我一节这样，突然就闪到小学课堂上，我看了下时间10点，完了要迟到了，我还在老家，拿出手机订回广州的票，这时老师发现我玩手机了，就是那个恶心人天天罚抄课文的老师，他说要叫家长，另一个我也进来了，他害怕的一批，都快哭了，我和我说我要回去上班了\uD83D\uDE02，然后指着老师说我叫***（我的名字，普通话）他叫***（家乡话）我们不是同一个，最后走出教室，闹钟就响了。太离谱了\uD83D\uDE02\uD83D\uDE02\uD83D\uDE02",
        "linkCover": null,
        "linkTitle": null,
        "linkUrl": null,
        "commentCount": 2,
        "thumbUpCount": 0,
        "images": [],
        "topicName": "小作文",
        "topicId": "1508993713629622273",
        "createTime": "2022-04-19 09:17",
        "hasThumbUp": false,
        "thumbUpList": [
          "1139423796017500160",
          "1256120724666454016",
          "1382711465131241472"
        ],
        "vip": true
      },
      {
        "id": "1516222005630734338",
        "userId": "1314408005793603584",
        "nickname": "ccTyL",
        "avatar": "https://images.sunofbeaches.com/content/2021_10_09/896340281694093312.png",
        "company": null,
        "position": null,
        "content": "<div>因为sob的收藏夹可以重复收藏，导致 检查是否已收藏接口报错 /ct/favorite/checkCollected?url=https://www.sunofbeach.net/a/1505521013162569730。</div><div>我猜大锯哥用的是jpa的 findOne，但是因为结果不止一个（同一个收藏夹可以重复收藏），导致报错no unique result。甚至可以猜出他的查询条件是findByUrl=xxxxx<img class=\"emoji\" src=\"https://cdn.sunofbeaches.com/emoji/7.png\" width=\"20\" height=\"20\"></div>",
        "linkCover": "",
        "linkTitle": "",
        "linkUrl": "",
        "commentCount": 1,
        "thumbUpCount": 1,
        "images": [],
        "topicName": null,
        "topicId": "",
        "createTime": "2022-04-19 09:07",
        "hasThumbUp": false,
        "thumbUpList": [
          "1139423796017500160"
        ],
        "vip": false
      },
      {
        "id": "1516221922524794881",
        "userId": "1139423796017500160",
        "nickname": "工头断点",
        "avatar": "https://imgs.sunofbeaches.com/group1/M00/00/04/rBsADV2YuTKABc4DAABfJHgYqP8031.png",
        "company": "阳光沙滩",
        "position": "Goolge高级CV工程师",
        "content": "程序员延寿指南~",
        "linkCover": "",
        "linkTitle": "GitHub - geekan/HowToLiveLonger: 程序员延寿指南 | A programmer's guide to living longer",
        "linkUrl": "https://github.com/geekan/HowToLiveLonger",
        "commentCount": 0,
        "thumbUpCount": 5,
        "images": [],
        "topicName": "养生之道",
        "topicId": "1384190025620533249",
        "createTime": "2022-04-19 09:07",
        "hasThumbUp": false,
        "thumbUpList": [
          "1202767676435456000",
          "1268774545783795712",
          "1139423796017500160",
          "1497193244834926593",
          "1438863588197507073"
        ],
        "vip": true
      },
      {
        "id": "1516219575463579649",
        "userId": "1314408005793603584",
        "nickname": "ccTyL",
        "avatar": "https://images.sunofbeaches.com/content/2021_10_09/896340281694093312.png",
        "company": null,
        "position": null,
        "content": "发现sob的收藏夹居然可以重复收藏一个文章，我这边的移动端主动做了下限制",
        "linkCover": "",
        "linkTitle": "",
        "linkUrl": "",
        "commentCount": 2,
        "thumbUpCount": 0,
        "images": [],
        "topicName": null,
        "topicId": "",
        "createTime": "2022-04-19 08:58",
        "hasThumbUp": false,
        "thumbUpList": [
          "1139423796017500160"
        ],
        "vip": false
      },
      {
        "id": "1516035268849700866",
        "userId": "1204736502274318336",
        "nickname": "A lonely cat",
        "avatar": "https://imgs.sunofbeaches.com/group1/M00/00/0C/rBsADV3w3l6ATs8KAAA8tUB7EHo702.png",
        "company": "求内推",
        "position": "Android开发工程师",
        "content": "话不多说，看图！\uD83D\uDE0F\uD83D\uDE0F",
        "linkCover": "",
        "linkTitle": "",
        "linkUrl": "",
        "commentCount": 5,
        "thumbUpCount": 0,
        "images": [
          "https://images.sunofbeaches.com/content/2022_04_18/965714353099636736.png",
          "https://images.sunofbeaches.com/content/2022_04_18/965714367771312128.png",
          "https://images.sunofbeaches.com/content/2022_04_18/965714383076327424.png",
          "https://images.sunofbeaches.com/content/2022_04_18/965714398351982592.png",
          "https://images.sunofbeaches.com/content/2022_04_18/965714413732495360.png"
        ],
        "topicName": "代码之美",
        "topicId": "1384189862646657025",
        "createTime": "2022-04-18 20:45",
        "hasThumbUp": false,
        "thumbUpList": [
          "1153952789488054272"
        ],
        "vip": true
      },
      {
        "id": "1515995421065875457",
        "userId": "1382711465131241472",
        "nickname": "阿肥",
        "avatar": "https://images.sunofbeaches.com/content/2022_01_04/927947264050069504.png",
        "company": "广州摸鱼无责任有限公司",
        "position": "首席划水工程师",
        "content": "挑战下班就走 第47天",
        "linkCover": null,
        "linkTitle": null,
        "linkUrl": "",
        "commentCount": 1,
        "thumbUpCount": 5,
        "images": [],
        "topicName": "下班打卡",
        "topicId": "1458039707895095298",
        "createTime": "2022-04-18 18:07",
        "hasThumbUp": false,
        "thumbUpList": [
          "1153952789488054272",
          "1139423796017500160",
          "1433361655298891777",
          "1438863588197507073",
          "1314408005793603584"
        ],
        "vip": false
      },
      {
        "id": "1515953851692224514",
        "userId": "1284274686481473536",
        "nickname": "YanLQ",
        "avatar": "https://images.sunofbeaches.com/content/2021_07_15/865370265700270080.png",
        "company": "",
        "position": "Android小萌新",
        "content": "为啥阿里云视频集成，会有这种要求呢？居然要项目移除AndroidX库和将编译版本同步到和引入库一样。。。。。 合理吗？<img class=\"emoji\" src=\"https://cdn.sunofbeaches.com/emoji/7.png\" width=\"20\" height=\"20\">",
        "linkCover": "",
        "linkTitle": "",
        "linkUrl": "",
        "commentCount": 3,
        "thumbUpCount": 0,
        "images": [
          "https://images.sunofbeaches.com/content/2022_04_18/965632839800324096.png"
        ],
        "topicName": null,
        "topicId": "",
        "createTime": "2022-04-18 15:22",
        "hasThumbUp": false,
        "thumbUpList": [
          "1139423796017500160"
        ],
        "vip": true
      },
      {
        "id": "1515888540548861954",
        "userId": "1139423796017500160",
        "nickname": "工头断点",
        "avatar": "https://imgs.sunofbeaches.com/group1/M00/00/04/rBsADV2YuTKABc4DAABfJHgYqP8031.png",
        "company": "阳光沙滩",
        "position": "Goolge高级CV工程师",
        "content": "刚刚打了2个正式包，发出去之后通知我包小了，小了？我去电脑了下，确实比我电脑上看到小了。其实是同一个文件。Apple认为1GB=1 000 000 000字节，Microsoft认为1GB=1 073 741 824字节，网络上多用Microsoft的标准。谢特。对比文件md5就能证明清白。",
        "linkCover": "",
        "linkTitle": "",
        "linkUrl": "",
        "commentCount": 2,
        "thumbUpCount": 7,
        "images": [],
        "topicName": "今天学废了吗？",
        "topicId": "1388132608877060098",
        "createTime": "2022-04-18 11:02",
        "hasThumbUp": false,
        "thumbUpList": [
          "1231137268748521472",
          "1153952789488054272",
          "1284274686481473536",
          "1382711465131241472",
          "1438863588197507073",
          "1139423796017500160",
          "1497193244834926593"
        ],
        "vip": true
      },
      {
        "id": "1515871596575723521",
        "userId": "1365268693742907392",
        "nickname": "CrTnil",
        "avatar": "https://images.sunofbeaches.com/content/2021_06_22/856894478944829440.png",
        "company": "打工人集团",
        "position": "CV工程师",
        "content": "蓝瘦，左腹部又开始疼了，想找个时间去看看",
        "linkCover": "",
        "linkTitle": "",
        "linkUrl": "",
        "commentCount": 5,
        "thumbUpCount": 0,
        "images": [],
        "topicName": null,
        "topicId": "",
        "createTime": "2022-04-18 09:55",
        "hasThumbUp": false,
        "thumbUpList": [
          "1231137268748521472",
          "1284274686481473536"
        ],
        "vip": true
      },
      {
        "id": "1515866780269023234",
        "userId": "1339887900006932480",
        "nickname": "年年",
        "avatar": "https://imgs.sunofbeaches.com/group1/M00/00/3B/rBsADV_eE-OAC--fAABO7gT-pcY862.png",
        "company": "翻斗花园",
        "position": "国家一级退堂鼓选手",
        "content": "绣球跟鱼一样，不放水桶就焉给我看<div>下次再也不想买绣球了</div>",
        "linkCover": "",
        "linkTitle": "",
        "linkUrl": "",
        "commentCount": 3,
        "thumbUpCount": 0,
        "images": [
          "https://images.sunofbeaches.com/content/2022_04_18/965545700978851840.jpg",
          "https://images.sunofbeaches.com/content/2022_04_18/965545717441495040.jpg"
        ],
        "topicName": null,
        "topicId": "",
        "createTime": "2022-04-18 09:36",
        "hasThumbUp": false,
        "thumbUpList": [
          "1139423796017500160",
          "1153952789488054272",
          "1284274686481473536"
        ],
        "vip": true
      }
    ],
    "total": 3158,
    "pageSize": 30,
    "currentPage": 1,
    "hasNext": true,
    "hasPre": false,
    "totalPage": 106
  }
}
