{
  "success": true,
  "code": 10000,
  "message": "获取成功.",
  "data": {
    "content": [
      {
        "_id": "1478927991999332353",
        "bUid": "1314408005793603584",
        "momentId": "1478643852838469634",
        "nickname": "南城阿宇",
        "avatar": "https://imgs.sunofbeaches.com/group1/M00/00/2A/rBsADV80qt6ASPajAABRTM8wiqs313.png",
        "uid": "1274165387499433984",
        "hasRead": "1",
        "title": "刚刚真的手滑执行了一下rm -rf，刚刚敲完回车，我说怎么不对劲，赶紧ctrl c 停下来，执行了ls，报没有命令，心里顿时凉凉...",
        "content": "Linux 教父",
        "createTime": "2022-01-06 11:14",
        "timeText": null
      }
    ],
    "pageable": {
      "sort": {
        "unsorted": false,
        "sorted": true
      },
      "pageSize": 30,
      "pageNumber": 0,
      "offset": 0,
      "unpaged": false,
      "paged": true
    },
    "totalPages": 3,
    "last": false,
    "totalElements": 81,
    "first": true,
    "sort": {
      "unsorted": false,
      "sorted": true
    },
    "numberOfElements": 30,
    "size": 30,
    "number": 0
  }
}
