{
  "success": true,
  "code": 10000,
  "message": "查询成功.",
  "data": {
    "content": [
      {
        "_id": "928569370735542272",
        "title": "每日登录奖励",
        "publishTime": "2022-01-06 08:43",
        "content": "<a href='https://mp.sunofbeach.net/#/index/setting/sobRecord' style='color:#e6a23c'>每日登录奖励2个sunof币</a> 感谢有你！",
        "state": "1",
        "exId": null,
        "exType": "sobTrade",
        "userId": "1314408005793603584"
      },
      {
        "_id": "928208827713585152",
        "title": "每日登录奖励",
        "publishTime": "2022-01-05 08:50",
        "content": "<a href='https://mp.sunofbeach.net/#/index/setting/sobRecord' style='color:#e6a23c'>每日登录奖励2个sunof币</a> 感谢有你！",
        "state": "1",
        "exId": null,
        "exType": "sobTrade",
        "userId": "1314408005793603584"
      },
      {
        "_id": "927964149927903232",
        "title": "每日登录奖励",
        "publishTime": "2022-01-04 16:38",
        "content": "<a href='https://mp.sunofbeach.net/#/index/setting/sobRecord' style='color:#e6a23c'>每日登录奖励2个sunof币</a> 感谢有你！",
        "state": "1",
        "exId": null,
        "exType": "sobTrade",
        "userId": "1314408005793603584"
      },
      {
        "_id": "927498581718335488",
        "title": "每日登录奖励",
        "publishTime": "2022-01-03 09:48",
        "content": "<a href='https://mp.sunofbeach.net/#/index/setting/sobRecord' style='color:#e6a23c'>每日登录奖励2个sunof币</a> 感谢有你！",
        "state": "1",
        "exId": null,
        "exType": "sobTrade",
        "userId": "1314408005793603584"
      },
      {
        "_id": "926745842889523200",
        "title": "每日登录奖励",
        "publishTime": "2022-01-01 07:57",
        "content": "<a href='https://mp.sunofbeach.net/#/index/setting/sobRecord' style='color:#e6a23c'>每日登录奖励2个sunof币</a> 感谢有你！",
        "state": "1",
        "exId": null,
        "exType": "sobTrade",
        "userId": "1314408005793603584"
      },
      {
        "_id": "925688836070047744",
        "title": "每日登录奖励",
        "publishTime": "2021-12-29 09:56",
        "content": "<a href='https://mp.sunofbeach.net/#/index/setting/sobRecord' style='color:#e6a23c'>每日登录奖励2个sunof币</a> 感谢有你！",
        "state": "1",
        "exId": null,
        "exType": "sobTrade",
        "userId": "1314408005793603584"
      },
      {
        "_id": "925305948199714816",
        "title": "每日登录奖励",
        "publishTime": "2021-12-28 08:35",
        "content": "<a href='https://mp.sunofbeach.net/#/index/setting/sobRecord' style='color:#e6a23c'>每日登录奖励2个sunof币</a> 感谢有你！",
        "state": "1",
        "exId": null,
        "exType": "sobTrade",
        "userId": "1314408005793603584"
      },
      {
        "_id": "924959024573579264",
        "title": "每日登录奖励",
        "publishTime": "2021-12-27 09:36",
        "content": "<a href='https://mp.sunofbeach.net/#/index/setting/sobRecord' style='color:#e6a23c'>每日登录奖励2个sunof币</a> 感谢有你！",
        "state": "1",
        "exId": null,
        "exType": "sobTrade",
        "userId": "1314408005793603584"
      },
      {
        "_id": "923891795492864000",
        "title": "每日登录奖励",
        "publishTime": "2021-12-24 10:56",
        "content": "<a href='https://mp.sunofbeach.net/#/index/setting/sobRecord' style='color:#e6a23c'>每日登录奖励2个sunof币</a> 感谢有你！",
        "state": "1",
        "exId": null,
        "exType": "sobTrade",
        "userId": "1314408005793603584"
      },
      {
        "_id": "923494245514346496",
        "title": "每日登录奖励",
        "publishTime": "2021-12-23 08:36",
        "content": "<a href='https://mp.sunofbeach.net/#/index/setting/sobRecord' style='color:#e6a23c'>每日登录奖励2个sunof币</a> 感谢有你！",
        "state": "1",
        "exId": null,
        "exType": "sobTrade",
        "userId": "1314408005793603584"
      },
      {
        "_id": "923130424601870336",
        "title": "每日登录奖励",
        "publishTime": "2021-12-22 08:30",
        "content": "<a href='https://mp.sunofbeach.net/#/index/setting/sobRecord' style='color:#e6a23c'>每日登录奖励2个sunof币</a> 感谢有你！",
        "state": "1",
        "exId": null,
        "exType": "sobTrade",
        "userId": "1314408005793603584"
      },
      {
        "_id": "922771898843004928",
        "title": "每日登录奖励",
        "publishTime": "2021-12-21 08:46",
        "content": "<a href='https://mp.sunofbeach.net/#/index/setting/sobRecord' style='color:#e6a23c'>每日登录奖励2个sunof币</a> 感谢有你！",
        "state": "1",
        "exId": null,
        "exType": "sobTrade",
        "userId": "1314408005793603584"
      },
      {
        "_id": "922412497170857984",
        "title": "每日登录奖励",
        "publishTime": "2021-12-20 08:57",
        "content": "<a href='https://mp.sunofbeach.net/#/index/setting/sobRecord' style='color:#e6a23c'>每日登录奖励2个sunof币</a> 感谢有你！",
        "state": "1",
        "exId": null,
        "exType": "sobTrade",
        "userId": "1314408005793603584"
      },
      {
        "_id": "922063031242850304",
        "title": "每日登录奖励",
        "publishTime": "2021-12-19 09:49",
        "content": "<a href='https://mp.sunofbeach.net/#/index/setting/sobRecord' style='color:#e6a23c'>每日登录奖励2个sunof币</a> 感谢有你！",
        "state": "1",
        "exId": null,
        "exType": "sobTrade",
        "userId": "1314408005793603584"
      },
      {
        "_id": "921320935233945600",
        "title": "每日登录奖励",
        "publishTime": "2021-12-17 08:40",
        "content": "<a href='https://mp.sunofbeach.net/#/index/setting/sobRecord' style='color:#e6a23c'>每日登录奖励2个sunof币</a> 感谢有你！",
        "state": "1",
        "exId": null,
        "exType": "sobTrade",
        "userId": "1314408005793603584"
      },
      {
        "_id": "920418398934925312",
        "title": "文章被打赏了",
        "publishTime": "2021-12-14 20:54",
        "content": "<a href='https://www.sunofbeach.net/a/1469638310052782082'>你的文章被打赏了2个sunof币，快去看看吧 >></a>",
        "state": "1",
        "exId": "1469638310052782082",
        "exType": "article",
        "userId": "1314408005793603584"
      },
      {
        "_id": "920367448769691648",
        "title": "文章被打赏了",
        "publishTime": "2021-12-14 17:31",
        "content": "<a href='https://www.sunofbeach.net/a/1469638310052782082'>你的文章被打赏了2个sunof币，快去看看吧 >></a>",
        "state": "1",
        "exId": "1469638310052782082",
        "exType": "article",
        "userId": "1314408005793603584"
      },
      {
        "_id": "920342798329184256",
        "title": "每日登录奖励",
        "publishTime": "2021-12-14 15:53",
        "content": "<a href='https://mp.sunofbeach.net/#/index/setting/sobRecord' style='color:#e6a23c'>每日登录奖励2个sunof币</a> 感谢有你！",
        "state": "1",
        "exId": null,
        "exType": "sobTrade",
        "userId": "1314408005793603584"
      },
      {
        "_id": "920262315541004288",
        "title": "文章被打赏了",
        "publishTime": "2021-12-14 10:33",
        "content": "<a href='https://www.sunofbeach.net/a/1469638310052782082'>你的文章被打赏了8个sunof币，快去看看吧 >></a>",
        "state": "1",
        "exId": "1469638310052782082",
        "exType": "article",
        "userId": "1314408005793603584"
      },
      {
        "_id": "919877766499794944",
        "title": "每日登录奖励",
        "publishTime": "2021-12-13 09:05",
        "content": "<a href='https://mp.sunofbeach.net/#/index/setting/sobRecord' style='color:#e6a23c'>每日登录奖励2个sunof币</a> 感谢有你！",
        "state": "1",
        "exId": null,
        "exType": "sobTrade",
        "userId": "1314408005793603584"
      },
      {
        "_id": "919516492389679104",
        "title": "每日登录奖励",
        "publishTime": "2021-12-12 09:10",
        "content": "<a href='https://mp.sunofbeach.net/#/index/setting/sobRecord' style='color:#e6a23c'>每日登录奖励2个sunof币</a> 感谢有你！",
        "state": "1",
        "exId": null,
        "exType": "sobTrade",
        "userId": "1314408005793603584"
      },
      {
        "_id": "919353693734699008",
        "title": "您的文章审核通过啦！",
        "publishTime": "2021-12-11 22:23",
        "content": "您的文章审核通过,<a href='https://mp.sunofbeach.net/#/index/setting/sobRecord' style='color:#e6a23c'>获得5个sunof币奖励</a> 赶紧分享给朋友们吧！<a target='_blank' href='https://www.sunofbeach.net/a/1469638310052782082' > 文章地址 >> </a>",
        "state": "1",
        "exId": null,
        "exType": null,
        "userId": "1314408005793603584"
      },
      {
        "_id": "919161984815988736",
        "title": "每日登录奖励",
        "publishTime": "2021-12-11 09:41",
        "content": "<a href='https://mp.sunofbeach.net/#/index/setting/sobRecord' style='color:#e6a23c'>每日登录奖励2个sunof币</a> 感谢有你！",
        "state": "1",
        "exId": null,
        "exType": "sobTrade",
        "userId": "1314408005793603584"
      },
      {
        "_id": "918788266679861248",
        "title": "每日登录奖励",
        "publishTime": "2021-12-10 08:56",
        "content": "<a href='https://mp.sunofbeach.net/#/index/setting/sobRecord' style='color:#e6a23c'>每日登录奖励2个sunof币</a> 感谢有你！",
        "state": "1",
        "exId": null,
        "exType": "sobTrade",
        "userId": "1314408005793603584"
      },
      {
        "_id": "918517137864130560",
        "title": "每日登录奖励",
        "publishTime": "2021-12-09 14:59",
        "content": "<a href='https://mp.sunofbeach.net/#/index/setting/sobRecord' style='color:#e6a23c'>每日登录奖励2个sunof币</a> 感谢有你！",
        "state": "1",
        "exId": null,
        "exType": "sobTrade",
        "userId": "1314408005793603584"
      },
      {
        "_id": "918068692279885824",
        "title": "每日登录奖励",
        "publishTime": "2021-12-08 09:17",
        "content": "<a href='https://mp.sunofbeach.net/#/index/setting/sobRecord' style='color:#e6a23c'>每日登录奖励2个sunof币</a> 感谢有你！",
        "state": "1",
        "exId": null,
        "exType": "sobTrade",
        "userId": "1314408005793603584"
      },
      {
        "_id": "917705293159202816",
        "title": "每日登录奖励",
        "publishTime": "2021-12-07 09:13",
        "content": "<a href='https://mp.sunofbeach.net/#/index/setting/sobRecord' style='color:#e6a23c'>每日登录奖励2个sunof币</a> 感谢有你！",
        "state": "1",
        "exId": null,
        "exType": "sobTrade",
        "userId": "1314408005793603584"
      },
      {
        "_id": "917434870668460032",
        "title": "每日登录奖励",
        "publishTime": "2021-12-06 15:18",
        "content": "<a href='https://mp.sunofbeach.net/#/index/setting/sobRecord' style='color:#e6a23c'>每日登录奖励2个sunof币</a> 感谢有你！",
        "state": "1",
        "exId": null,
        "exType": "sobTrade",
        "userId": "1314408005793603584"
      },
      {
        "_id": "916978573670088704",
        "title": "每日登录奖励",
        "publishTime": "2021-12-05 09:05",
        "content": "<a href='https://mp.sunofbeach.net/#/index/setting/sobRecord' style='color:#e6a23c'>每日登录奖励2个sunof币</a> 感谢有你！",
        "state": "1",
        "exId": null,
        "exType": "sobTrade",
        "userId": "1314408005793603584"
      },
      {
        "_id": "916613628134686720",
        "title": "每日登录奖励",
        "publishTime": "2021-12-04 08:55",
        "content": "<a href='https://mp.sunofbeach.net/#/index/setting/sobRecord' style='color:#e6a23c'>每日登录奖励2个sunof币</a> 感谢有你！",
        "state": "1",
        "exId": null,
        "exType": "sobTrade",
        "userId": "1314408005793603584"
      }
    ],
    "pageable": {
      "sort": {
        "unsorted": false,
        "sorted": true
      },
      "pageSize": 30,
      "pageNumber": 0,
      "offset": 0,
      "unpaged": false,
      "paged": true
    },
    "totalPages": 6,
    "last": false,
    "totalElements": 168,
    "first": true,
    "sort": {
      "unsorted": false,
      "sorted": true
    },
    "numberOfElements": 30,
    "size": 30,
    "number": 0
  }
}
