{
  "success": true,
  "code": 10000,
  "message": "获取成功.",
  "data": {
    "content": [
      {
        "_id": "928657323830804480",
        "beUid": "1314408005793603584",
        "title": "做个报表功能就嵌套了三层for循环，还多次写了比较麻烦的sql，...",
        "url": "/m/1478307708313567234",
        "nickname": "阿肥",
        "avatar": "https://images.sunofbeaches.com/content/2022_01_04/927947264050069504.png",
        "uid": "1382711465131241472",
        "thumbTime": "2022-01-06 14:32",
        "timeText": "9分钟前",
        "hasRead": "1"
      },
      {
        "_id": "928657295477309440",
        "beUid": "1314408005793603584",
        "title": "刚刚真的手滑执行了一下rm -rf，刚刚敲完回车，我说怎么不对劲...",
        "url": "/m/1478643852838469634",
        "nickname": "阿肥",
        "avatar": "https://images.sunofbeaches.com/content/2022_01_04/927947264050069504.png",
        "uid": "1382711465131241472",
        "thumbTime": "2022-01-06 14:32",
        "timeText": "9分钟前",
        "hasRead": "1"
      },
      {
        "_id": "928607723346460672",
        "beUid": "1314408005793603584",
        "title": "做个报表功能就嵌套了三层for循环，还多次写了比较麻烦的sql，...",
        "url": "/m/1478307708313567234",
        "nickname": "南城阿宇",
        "avatar": "https://imgs.sunofbeaches.com/group1/M00/00/2A/rBsADV80qt6ASPajAABRTM8wiqs313.png",
        "uid": "1274165387499433984",
        "thumbTime": "2022-01-06 11:15",
        "timeText": "3小时前",
        "hasRead": "1"
      },
      {
        "_id": "928607459524739072",
        "beUid": "1314408005793603584",
        "title": "刚刚真的手滑执行了一下rm -rf，刚刚敲完回车，我说怎么不对劲...",
        "url": "/m/1478643852838469634",
        "nickname": "南城阿宇",
        "avatar": "https://imgs.sunofbeaches.com/group1/M00/00/2A/rBsADV80qt6ASPajAABRTM8wiqs313.png",
        "uid": "1274165387499433984",
        "thumbTime": "2022-01-06 11:14",
        "timeText": "3小时前",
        "hasRead": "1"
      },
      {
        "_id": "928035664442687488",
        "beUid": "1314408005793603584",
        "title": "做个报表功能就嵌套了三层for循环，还多次写了比较麻烦的sql，...",
        "url": "/m/1478307708313567234",
        "nickname": "拉大锯",
        "avatar": "https://images.sunofbeaches.com/content/2022_01_04/927902852251123712.png",
        "uid": "1153952789488054272",
        "thumbTime": "2022-01-04 21:22",
        "timeText": "昨天",
        "hasRead": "1"
      },
      {
        "_id": "926789975003889664",
        "beUid": "1314408005793603584",
        "title": "<div>终于能登录上了，找这个网站大半天也没看到邮箱，想起b站...",
        "url": "/m/1477066886289063937",
        "nickname": "拉大锯",
        "avatar": "https://imgs.sunofbeaches.com/group1/M00/00/07/rBsADV22ZymAV8BwAABVL9XtNSU926.png",
        "uid": "1153952789488054272",
        "thumbTime": "2022-01-01 10:52",
        "timeText": "5天前",
        "hasRead": "1"
      },
      {
        "_id": "923697730197389312",
        "beUid": "1314408005793603584",
        "title": "想通过p2p的udp打洞，实现一个内网穿透。但实际测试过程中，客...",
        "url": "/m/1473815694385709058",
        "nickname": "南城阿宇",
        "avatar": "https://imgs.sunofbeaches.com/group1/M00/00/2A/rBsADV80qt6ASPajAABRTM8wiqs313.png",
        "uid": "1274165387499433984",
        "thumbTime": "2021-12-23 22:05",
        "timeText": "13天前",
        "hasRead": "1"
      },
      {
        "_id": "923513796222255104",
        "beUid": "1314408005793603584",
        "title": "想通过p2p的udp打洞，实现一个内网穿透。但实际测试过程中，客...",
        "url": "/m/1473815694385709058",
        "nickname": "年年",
        "avatar": "https://imgs.sunofbeaches.com/group1/M00/00/3B/rBsADV_eE-OAC--fAABO7gT-pcY862.png",
        "uid": "1339887900006932480",
        "thumbTime": "2021-12-23 09:54",
        "timeText": "14天前",
        "hasRead": "1"
      },
      {
        "_id": "923513120733790208",
        "beUid": "1314408005793603584",
        "title": "想通过p2p的udp打洞，实现一个内网穿透。但实际测试过程中，客...",
        "url": "/m/1473815694385709058",
        "nickname": "独一无二的学名",
        "avatar": "https://images.sunofbeaches.com/content/2021_12_09/918461225149399040.png",
        "uid": "1468781305314426882",
        "thumbTime": "2021-12-23 09:51",
        "timeText": "14天前",
        "hasRead": "1"
      },
      {
        "_id": "923501017046188032",
        "beUid": "1314408005793603584",
        "title": "想通过p2p的udp打洞，实现一个内网穿透。但实际测试过程中，客...",
        "url": "/m/1473815694385709058",
        "nickname": "码划云",
        "avatar": "https://images.sunofbeaches.com/content/2021_11_02/905032210413780992.png",
        "uid": "1231137268748521472",
        "thumbTime": "2021-12-23 09:03",
        "timeText": "14天前",
        "hasRead": "1"
      }
    ],
    "pageable": {
      "sort": {
        "unsorted": true,
        "sorted": false
      },
      "pageSize": 10,
      "pageNumber": 0,
      "offset": 0,
      "unpaged": false,
      "paged": true
    },
    "totalPages": 15,
    "last": false,
    "totalElements": 142,
    "first": true,
    "sort": {
      "unsorted": true,
      "sorted": false
    },
    "numberOfElements": 10,
    "size": 10,
    "number": 0
  }
}
