{
  "success": true,
  "code": 10000,
  "message": "获取消息成功.",
  "data": {
    "content": [
      {
        "_id": "913787973344952320",
        "bUid": "1314408005793603584",
        "wendaId": "1464066316922019841",
        "nickname": "ccTyL",
        "avatar": "https://images.sunofbeaches.com/content/2021_10_09/896340281694093312.png",
        "uid": "1314408005793603584",
        "hasRead": "1",
        "title": "（已解决）Retrofit 响应 强转 编译不通过",
        "createTime": "2021-11-26 13:47",
        "timeText": "2021-11-26"
      },
      {
        "_id": "913751376377413632",
        "bUid": "1314408005793603584",
        "wendaId": "1464066316922019841",
        "nickname": "断点-含光君",
        "avatar": "https://imgs.sunofbeaches.com/group1/M00/00/04/rBsADV2YuTKABc4DAABfJHgYqP8031.png",
        "uid": "1139423796017500160",
        "hasRead": "1",
        "title": "Retrofit 响应 强转 编译不通过",
        "createTime": "2021-11-26 11:21",
        "timeText": "2021-11-26"
      },
      {
        "_id": "913750515286802432",
        "bUid": "1314408005793603584",
        "wendaId": "1464066316922019841",
        "nickname": " 独孤求学",
        "avatar": "https://cdn.sunofbeaches.com/images/default_avatar.png",
        "uid": "1274616357299712000",
        "hasRead": "1",
        "title": "Retrofit 响应 强转 编译不通过",
        "createTime": "2021-11-26 11:18",
        "timeText": "2021-11-26"
      },
      {
        "_id": "913749454496989184",
        "bUid": "1314408005793603584",
        "wendaId": "1464066316922019841",
        "nickname": "拉大锯",
        "avatar": "https://imgs.sunofbeaches.com/group1/M00/00/07/rBsADV22ZymAV8BwAABVL9XtNSU926.png",
        "uid": "1153952789488054272",
        "hasRead": "1",
        "title": "Retrofit 响应 强转 编译不通过",
        "createTime": "2021-11-26 11:14",
        "timeText": "2021-11-26"
      },
      {
        "_id": "908736912854876160",
        "bUid": "1314408005793603584",
        "wendaId": "1458717567249047553",
        "nickname": "冒着泡泡的汽水儿",
        "avatar": "https://images.sunofbeaches.com/content/2021_05_18/844171416617091072.png",
        "uid": "1255088796991492096",
        "hasRead": "1",
        "title": "android读取串口必须要root吗",
        "createTime": "2021-11-12 15:16",
        "timeText": "2021-11-12"
      },
      {
        "_id": "908451204676190208",
        "bUid": "1314408005793603584",
        "wendaId": "1458717567249047553",
        "nickname": "Xiao9mmDa",
        "avatar": "https://imgs.sunofbeaches.com/group1/M00/00/3A/rBsADV_PbTyAJexxAABHFzLgPUo164.png",
        "uid": "1279241123625246720",
        "hasRead": "1",
        "title": "android读取串口必须要root吗",
        "createTime": "2021-11-11 20:20",
        "timeText": "2021-11-11"
      },
      {
        "_id": "908399859336216576",
        "bUid": "1314408005793603584",
        "wendaId": "1458717567249047553",
        "nickname": "码划云",
        "avatar": "https://images.sunofbeaches.com/content/2021_11_02/905032210413780992.png",
        "uid": "1231137268748521472",
        "hasRead": "1",
        "title": "android读取串口必须要root吗",
        "createTime": "2021-11-11 16:56",
        "timeText": "2021-11-11"
      },
      {
        "_id": "908398507839193088",
        "bUid": "1314408005793603584",
        "wendaId": "1458717567249047553",
        "nickname": "一日就是一天",
        "avatar": "https://images.sunofbeaches.com/content/2021_08_09/874382661366317056.png",
        "uid": "1279706481779875840",
        "hasRead": "1",
        "title": "android读取串口必须要root吗",
        "createTime": "2021-11-11 16:51",
        "timeText": "2021-11-11"
      },
      {
        "_id": "900331790546239488",
        "bUid": "1314408005793603584",
        "wendaId": "1450634060081668098",
        "nickname": "竭风",
        "avatar": "https://images.sunofbeaches.com/content/2021_09_29/892718450277875712.png",
        "uid": "1171041086097883136",
        "hasRead": "1",
        "title": "spring security 放行了swagger，但是访问还是被拦截了",
        "createTime": "2021-10-20 10:37",
        "timeText": "2021-10-20"
      },
      {
        "_id": "900317908721205248",
        "bUid": "1314408005793603584",
        "wendaId": "1450634060081668098",
        "nickname": "拉大锯",
        "avatar": "https://imgs.sunofbeaches.com/group1/M00/00/07/rBsADV22ZymAV8BwAABVL9XtNSU926.png",
        "uid": "1153952789488054272",
        "hasRead": "1",
        "title": "spring security 放行了swagger，但是访问还是被拦截了",
        "createTime": "2021-10-20 09:41",
        "timeText": "2021-10-20"
      }
    ],
    "pageable": {
      "sort": {
        "unsorted": true,
        "sorted": false
      },
      "pageSize": 10,
      "pageNumber": 0,
      "offset": 0,
      "unpaged": false,
      "paged": true
    },
    "totalPages": 2,
    "last": false,
    "totalElements": 17,
    "first": true,
    "sort": {
      "unsorted": true,
      "sorted": false
    },
    "numberOfElements": 10,
    "size": 10,
    "number": 0
  }
}
